{
  "query": {
    "getContentById": {
      "file": "/home/joel/projects/open-source/nb-site-generator/src/app/resolvers/query/get-content-by-id.js",
      "description": "Just return the data struture from the nedb",
      "params": [
        {
          "type": [
            "number"
          ],
          "name": "id",
          "description": "from nedb"
        }
      ],
      "returns": [
        {
          "type": [
            "object"
          ],
          "description": "the content document"
        }
      ]
    },
    "getMenu": {
      "file": "/home/joel/projects/open-source/nb-site-generator/src/app/resolvers/query/get-menu.js",
      "description": "Just return the data struture from the nedb",
      "params": [
        {
          "type": [
            "object"
          ],
          "name": "menu"
        }
      ],
      "returns": false
    }
  },
  "mutation": {
    "saveContent": {
      "file": "/home/joel/projects/open-source/nb-site-generator/src/app/resolvers/mutation/save-content.js",
      "description": false,
      "params": [
        {
          "type": [
            "object"
          ],
          "name": "payload"
        },
        {
          "type": [
            "object"
          ],
          "name": "condition"
        }
      ],
      "returns": [
        {
          "type": [
            "boolean"
          ],
          "description": "true on OK"
        }
      ]
    },
    "saveMenu": {
      "file": "/home/joel/projects/open-source/nb-site-generator/src/app/resolvers/mutation/save-menu.js",
      "description": false,
      "params": [
        {
          "type": [
            "object"
          ],
          "name": "payload"
        },
        {
          "type": [
            "object"
          ],
          "name": "condition"
        }
      ],
      "returns": [
        {
          "type": [
            "boolean"
          ],
          "description": "true on OK"
        }
      ]
    }
  },
  "auth": {},
  "timestamp": 1561902293
}
